{
  "name": "spark03",
  "chef_environment": "local",
  "normal": {
    "knife_zero": {
      "host": "vagrant@spark03"
    },
    "group": {
      "vagrant": [
        "vagrant"
      ]
    },
    "system": {
      "profile": {
        "environments": {
          "JAVA_HOME": "/usr/lib/jvm/java-8-openjdk-amd64"
        },
        "paths": [

        ]
      }
    },
    "user": {
      "vagrant": {
        "authorization": [
          "vagrant"
        ],
        "profile": {
          "environments": {
            "SPARK_HOME": "/opt/spark/current",
            "HADOOP_HOME": "/opt/hadoop/current"
          },
          "paths": [
            "$SPARK_HOME/bin",
            "$HADOOP_HOME/bin",
            "$HADOOP_HOME/sbin"
          ]
        }
      },
      "root": {
        "authorization": [
          "vagrant"
        ]
      }
    },
    "tags": [

    ]
  },
  "run_list": [
    "role[base]",
    "role[spark]",
    "role[hadoop]",
    "role[kafka]"
  ]
}